-------------------------------------------------------------------------------
Test set: ch.cern.statistics.service.CookieFileTest
-------------------------------------------------------------------------------
Tests run: 1, Failures: 0, Errors: 1, Skipped: 0, Time elapsed: 1.544 s <<< FAILURE! - in ch.cern.statistics.service.CookieFileTest
readCookieFileTest(ch.cern.statistics.service.CookieFileTest)  Time elapsed: 0 s  <<< ERROR!
java.lang.IllegalStateException: Failed to load ApplicationContext
Caused by: org.springframework.beans.factory.UnsatisfiedDependencyException: Error creating bean with name 'beans': Unsatisfied dependency expressed through field 'rtuDownTimeRepository'; nested exception is org.springframework.beans.factory.BeanCreationException: Error creating bean with name 'rtuDownTimeRepository': Cannot resolve reference to bean 'mongoTemplate' while setting bean property 'mongoOperations'; nested exception is org.springframework.beans.factory.UnsatisfiedDependencyException: Error creating bean with name 'org.springframework.boot.autoconfigure.data.mongo.MongoDataAutoConfiguration': Unsatisfied dependency expressed through constructor parameter 1; nested exception is org.springframework.beans.factory.BeanCreationException: Error creating bean with name 'spring.data.mongodb-org.springframework.boot.autoconfigure.mongo.MongoProperties': Could not bind properties to MongoProperties (prefix=spring.data.mongodb, ignoreInvalidFields=false, ignoreUnknownFields=true, ignoreNestedProperties=false); nested exception is java.lang.IllegalStateException: Required Encryption configuration property missing: jasypt.encryptor.password
Caused by: org.springframework.beans.factory.BeanCreationException: Error creating bean with name 'rtuDownTimeRepository': Cannot resolve reference to bean 'mongoTemplate' while setting bean property 'mongoOperations'; nested exception is org.springframework.beans.factory.UnsatisfiedDependencyException: Error creating bean with name 'org.springframework.boot.autoconfigure.data.mongo.MongoDataAutoConfiguration': Unsatisfied dependency expressed through constructor parameter 1; nested exception is org.springframework.beans.factory.BeanCreationException: Error creating bean with name 'spring.data.mongodb-org.springframework.boot.autoconfigure.mongo.MongoProperties': Could not bind properties to MongoProperties (prefix=spring.data.mongodb, ignoreInvalidFields=false, ignoreUnknownFields=true, ignoreNestedProperties=false); nested exception is java.lang.IllegalStateException: Required Encryption configuration property missing: jasypt.encryptor.password
Caused by: org.springframework.beans.factory.UnsatisfiedDependencyException: Error creating bean with name 'org.springframework.boot.autoconfigure.data.mongo.MongoDataAutoConfiguration': Unsatisfied dependency expressed through constructor parameter 1; nested exception is org.springframework.beans.factory.BeanCreationException: Error creating bean with name 'spring.data.mongodb-org.springframework.boot.autoconfigure.mongo.MongoProperties': Could not bind properties to MongoProperties (prefix=spring.data.mongodb, ignoreInvalidFields=false, ignoreUnknownFields=true, ignoreNestedProperties=false); nested exception is java.lang.IllegalStateException: Required Encryption configuration property missing: jasypt.encryptor.password
Caused by: org.springframework.beans.factory.BeanCreationException: Error creating bean with name 'spring.data.mongodb-org.springframework.boot.autoconfigure.mongo.MongoProperties': Could not bind properties to MongoProperties (prefix=spring.data.mongodb, ignoreInvalidFields=false, ignoreUnknownFields=true, ignoreNestedProperties=false); nested exception is java.lang.IllegalStateException: Required Encryption configuration property missing: jasypt.encryptor.password
Caused by: java.lang.IllegalStateException: Required Encryption configuration property missing: jasypt.encryptor.password

